<svg width="20" height="20" viewBox="0 0 20 20" fill="none" xmlns="http://www.w3.org/2000/svg">
<path d="M13.2477 14.2718L14.9277 12.5749C15.154 12.3492 15.4403 12.1947 15.7518 12.1301C16.0634 12.0656 16.3867 12.0938 16.6827 12.2113L18.7302 13.037C19.0293 13.1596 19.2858 13.3689 19.4673 13.6386C19.6488 13.9082 19.7473 14.226 19.7502 14.5521V18.3398C19.7485 18.5616 19.7023 18.7807 19.6145 18.984C19.5267 19.1873 19.3991 19.3705 19.2393 19.5227C19.0796 19.6749 18.891 19.7928 18.6849 19.8694C18.4788 19.946 18.2595 19.9797 18.0402 19.9685C3.69272 19.067 0.797722 6.79489 0.250222 2.09816C0.224807 1.86751 0.248028 1.63405 0.318359 1.41312C0.388689 1.1922 0.504534 0.988814 0.658273 0.816356C0.812012 0.643897 1.00016 0.506272 1.21034 0.412533C1.42052 0.318795 1.64797 0.271068 1.87772 0.272492H5.50022C5.82348 0.273458 6.13906 0.372083 6.40637 0.555682C6.67368 0.73928 6.8805 0.999455 7.00022 1.30274L7.81772 3.37082C7.93791 3.66859 7.96858 3.99552 7.90588 4.31078C7.84319 4.62605 7.68992 4.91566 7.46522 5.14346L5.78522 6.84034C5.78522 6.84034 6.75272 13.4536 13.2477 14.2718Z" fill="#353331"/>
</svg>
